[
  {
    "score": 2490,
    "name": "Reece",
    "time": 283101
  },
  {
    "score": 1720,
    "name": "Daniel H",
    "time": 214354
  },
  {
    "score": 1010,
    "name": "David",
    "time": 122247
  },
  {
    "score": 10,
    "name": "Daniel",
    "time": 12909
  }
]